{
  "images" : [
    {
      "idiom" : "iphone",
      "scale" : "1x"
    },
    {
      "filename" : "bg_clearnight-2.jpg",
      "idiom" : "iphone",
      "scale" : "2x"
    },
    {
      "filename" : "bg_clearnight.jpg",
      "idiom" : "iphone",
      "scale" : "3x"
    },
    {
      "idiom" : "iphone",
      "scale" : "1x",
      "subtype" : "retina4"
    },
    {
      "filename" : "bg_clearnight-1.jpg",
      "idiom" : "iphone",
      "scale" : "2x",
      "subtype" : "retina4"
    },
    {
      "idiom" : "iphone",
      "scale" : "3x",
      "subtype" : "retina4"
    }
  ],
  "info" : {
    "author" : "xcode",
    "version" : 1
  }
}
